{"frames": {

"Fish1_ (1).png":
{
	"frame": {"x":1254,"y":879,"w":378,"h":205},
	"rotated": false,
	"trimmed": false,
	"spriteSourceSize": {"x":0,"y":0,"w":378,"h":205},
	"sourceSize": {"w":378,"h":205}
},
"Fish1_ (2).png":
{
	"frame": {"x":1,"y":889,"w":393,"h":207},
	"rotated": false,
	"trimmed": false,
	"spriteSourceSize": {"x":0,"y":0,"w":393,"h":207},
	"sourceSize": {"w":393,"h":207}
},
"Fish1_ (3).png":
{
	"frame": {"x":417,"y":884,"w":407,"h":209},
	"rotated": false,
	"trimmed": false,
	"spriteSourceSize": {"x":0,"y":0,"w":407,"h":209},
	"sourceSize": {"w":407,"h":209}
},
"Fish1_ (4).png":
{
	"frame": {"x":862,"y":1,"w":419,"h":212},
	"rotated": false,
	"trimmed": false,
	"spriteSourceSize": {"x":0,"y":0,"w":419,"h":212},
	"sourceSize": {"w":419,"h":212}
},
"Fish1_ (5).png":
{
	"frame": {"x":844,"y":225,"w":428,"h":216},
	"rotated": false,
	"trimmed": false,
	"spriteSourceSize": {"x":0,"y":0,"w":428,"h":216},
	"sourceSize": {"w":428,"h":216}
},
"Fish1_ (6).png":
{
	"frame": {"x":1,"y":1,"w":431,"h":218},
	"rotated": false,
	"trimmed": false,
	"spriteSourceSize": {"x":0,"y":0,"w":431,"h":218},
	"sourceSize": {"w":431,"h":218}
},
"Fish1_ (7).png":
{
	"frame": {"x":417,"y":449,"w":430,"h":221},
	"rotated": false,
	"trimmed": false,
	"spriteSourceSize": {"x":0,"y":0,"w":430,"h":221},
	"sourceSize": {"w":430,"h":221}
},
"Fish1_ (8).png":
{
	"frame": {"x":434,"y":1,"w":426,"h":222},
	"rotated": false,
	"trimmed": false,
	"spriteSourceSize": {"x":0,"y":0,"w":426,"h":222},
	"sourceSize": {"w":426,"h":222}
},
"Fish1_ (9).png":
{
	"frame": {"x":1,"y":221,"w":422,"h":222},
	"rotated": false,
	"trimmed": false,
	"spriteSourceSize": {"x":0,"y":0,"w":422,"h":222},
	"sourceSize": {"w":422,"h":222}
},
"Fish1_ (10).png":
{
	"frame": {"x":425,"y":225,"w":417,"h":222},
	"rotated": false,
	"trimmed": false,
	"spriteSourceSize": {"x":0,"y":0,"w":417,"h":222},
	"sourceSize": {"w":417,"h":222}
},
"Fish1_ (11).png":
{
	"frame": {"x":1,"y":445,"w":414,"h":221},
	"rotated": false,
	"trimmed": false,
	"spriteSourceSize": {"x":0,"y":0,"w":414,"h":221},
	"sourceSize": {"w":414,"h":221}
},
"Fish1_ (12).png":
{
	"frame": {"x":1,"y":668,"w":414,"h":219},
	"rotated": false,
	"trimmed": false,
	"spriteSourceSize": {"x":0,"y":0,"w":414,"h":219},
	"sourceSize": {"w":414,"h":219}
},
"Fish1_ (13).png":
{
	"frame": {"x":849,"y":443,"w":414,"h":217},
	"rotated": false,
	"trimmed": false,
	"spriteSourceSize": {"x":0,"y":0,"w":414,"h":217},
	"sourceSize": {"w":414,"h":217}
},
"Fish1_ (14).png":
{
	"frame": {"x":849,"y":662,"w":415,"h":215},
	"rotated": false,
	"trimmed": false,
	"spriteSourceSize": {"x":0,"y":0,"w":415,"h":215},
	"sourceSize": {"w":415,"h":215}
},
"Fish1_ (15).png":
{
	"frame": {"x":417,"y":672,"w":416,"h":210},
	"rotated": false,
	"trimmed": false,
	"spriteSourceSize": {"x":0,"y":0,"w":416,"h":210},
	"sourceSize": {"w":416,"h":210}
},
"Fish1_ (16).png":
{
	"frame": {"x":835,"y":879,"w":417,"h":206},
	"rotated": false,
	"trimmed": false,
	"spriteSourceSize": {"x":0,"y":0,"w":417,"h":206},
	"sourceSize": {"w":417,"h":206}
},
"Fish1_ (17).png":
{
	"frame": {"x":826,"y":1087,"w":412,"h":201},
	"rotated": false,
	"trimmed": false,
	"spriteSourceSize": {"x":0,"y":0,"w":412,"h":201},
	"sourceSize": {"w":412,"h":201}
},
"Fish1_ (18).png":
{
	"frame": {"x":396,"y":1095,"w":401,"h":199},
	"rotated": false,
	"trimmed": false,
	"spriteSourceSize": {"x":0,"y":0,"w":401,"h":199},
	"sourceSize": {"w":401,"h":199}
},
"Fish1_ (19).png":
{
	"frame": {"x":1,"y":1098,"w":384,"h":199},
	"rotated": false,
	"trimmed": false,
	"spriteSourceSize": {"x":0,"y":0,"w":384,"h":199},
	"sourceSize": {"w":384,"h":199}
},
"Fish1_ (20).png":
{
	"frame": {"x":1254,"y":1086,"w":365,"h":199},
	"rotated": false,
	"trimmed": false,
	"spriteSourceSize": {"x":0,"y":0,"w":365,"h":199},
	"sourceSize": {"w":365,"h":199}
},
"Fish1_ (21).png":
{
	"frame": {"x":1266,"y":648,"w":349,"h":200},
	"rotated": false,
	"trimmed": false,
	"spriteSourceSize": {"x":0,"y":0,"w":349,"h":200},
	"sourceSize": {"w":349,"h":200}
},
"Fish1_ (22).png":
{
	"frame": {"x":1283,"y":1,"w":341,"h":201},
	"rotated": false,
	"trimmed": false,
	"spriteSourceSize": {"x":0,"y":0,"w":341,"h":201},
	"sourceSize": {"w":341,"h":201}
},
"Fish1_ (23).png":
{
	"frame": {"x":1274,"y":215,"w":344,"h":202},
	"rotated": false,
	"trimmed": false,
	"spriteSourceSize": {"x":0,"y":0,"w":344,"h":202},
	"sourceSize": {"w":344,"h":202}
},
"Fish1_ (24).png":
{
	"frame": {"x":1265,"y":443,"w":353,"h":203},
	"rotated": false,
	"trimmed": false,
	"spriteSourceSize": {"x":0,"y":0,"w":353,"h":203},
	"sourceSize": {"w":353,"h":203}
}},
"meta": {
	"app": "http://www.codeandweb.com/texturepacker",
	"version": "1.0",
	"image": "fish1.png",
	"format": "RGBA8888",
	"size": {"w":1633,"h":1298},
	"scale": "1",
	"smartupdate": "$TexturePacker:SmartUpdate:be22dfe4a94b523b9a90b07a28e5b979:5469a7e2252b2a374de1dc615d422de2:36e8e05823fe54c1a5c8c6c290389dff$"
}
}
